class,z_accel max,z_accel min,z_accel peak-freq,z_accel variance,z_accel second-max,z_accel second-min,z_accel ratio,z_accel skewness,z_accel kurtosis,z_accel mean,z_accel settling-time
soft,1110.04093936,173.062227613,1.66666666667,52750.0958632,1056.92585532,179.801387914,1.05025431422,-2.3411800529220086,4.121597360663279,929.552890542,0.05
soft,1050.92850214,-55.1662682294,1.66666666667,86681.3866021,1032.33131653,27.1247225464,1.01801474518,-1.9664290769034243,2.291683202115875,881.905,0.04
soft,1033.06774542,-299.763429656,1.66666666667,95534.0096217,1025.15761891,172.212803896,1.00771601007,-2.2272366530513716,3.978153716006397,873.527014272,0.11
soft,1127.34777847,102.348941952,1.66666666667,43888.3130662,1067.95237028,215.47772114,1.0556161584,-2.634008838258661,5.818448267997088,938.904406739,0.02
soft,1028.25546816,-69.891069464,3.33333333333,82906.5344059,1027.31055793,131.620520175,1.00091979025,-1.997853925201942,2.5747383087145375,884.686531733,0.135
soft,1136.9293963,-101.870111953,1.66666666667,61127.15539,1078.37080566,164.651960321,1.0543028338,-2.6476408302027994,5.952021423709251,928.13620245,0.04
soft,1088.90411011,177.908760944,3.33333333333,33511.4149724,1034.53206266,452.898713138,1.05255714097,-2.433038277106668,5.323551271404531,938.908442324,0.02
soft,1078.68298968,-166.347548057,3.66666666667,60529.4940813,1050.7376816,193.031350609,1.02659589407,-2.7892762777887694,7.111870474013594,920.002259927,0.015
soft,1050.90616391,191.221387236,3.33333333333,45620.2531966,1038.21282723,328.16189866,1.01222614126,-2.1210293641386535,3.0337159417562525,923.294677134,0.1
soft,1030.74152609,206.709781375,3.66666666667,39470.6513317,1028.9506238,322.677623883,1.00174051335,-2.0993868470556643,3.1884694965463094,926.903010487,0.06
soft,1199.22656678,207.44967441,1.66666666667,38775.5738935,1116.68976005,214.265877511,1.07391202972,-2.50851370014647,5.525538971808508,952.556300711,0.1
soft,1122.23862333,78.2927717385,1.66666666667,47025.7929893,1086.19819064,207.751475382,1.03318034683,-2.4634658264025573,5.086596851377017,933.897766681,0.04
soft,1027.33909982,193.896041142,2.66666666667,31142.4317565,1026.32282787,311.964523327,1.00099020691,-2.653975807579602,6.43597814140014,941.732421441,0.035
soft,1033.05983052,-421.178967717,4.0,96613.6534093,1024.51292634,144.690753761,1.00834240736,-2.3699468862754616,5.071836942585419,871.984782019,0.065
soft,1219.43853926,219.272778338,3.66666666667,31687.0825755,1024.67835635,278.536224932,1.19006957813,-2.772462666620533,7.0084948121187445,953.124758263,0.03
soft,1158.05548146,30.8125196293,1.66666666667,69168.3259876,1097.59114798,151.248342945,1.05508821166,-2.1287827360756006,3.0949769312325506,908.431606855,0.095
soft,1185.9287427,174.934276635,4.0,32490.2158438,1028.33843817,388.773321569,1.15324750946,-2.5741803089539843,6.164596950492189,943.094071331,0.025
soft,1274.37312296,209.829622794,3.0,29787.2938878,1073.3773588,497.606748892,1.18725545356,-2.5519399590911016,6.676565218540478,969.237494549,0.065
soft,1032.74271055,228.499073775,3.66666666667,25339.9614952,1027.24017328,452.344315956,1.00535662197,-2.8622808178329753,7.800043217067035,952.980808486,0.025
soft,1169.0570359,-72.629293502,1.66666666667,51809.7478387,1030.60897079,200.582692416,1.13433617311,-2.6272474307382603,6.264339453185125,931.672243358,0.045
