class,temp max,temp min,temp peak-freq,temp variance,temp second-max,temp second-min,temp ratio,temp skewness,temp kurtosis,temp mean,temp settling-time,light max,light min,light peak-freq,light variance,light second-max,light second-min,light ratio,light skewness,light kurtosis,light mean,light settling-time
inside,74.39265434,73.80196319,0,0.030053276,74.11803681,73.95335793,1.003705138,0.627293525,-0.691585221,73.97276885,0.12,36.33999319,32.13726018,0,1.768161436,35.72060155,33.22671489,1.017339899,0.131077702,-1.519419343,34.35174562,0.63
inside,74.83802748,74.44,0,0.009904633,74.76641585,74.44,1.000957805,-2.273011315,3.685775774,74.73156,0.06,34.06285991,28.90637767,0,6.284750504,33.81628022,30.45973453,1.007291745,-0.671467329,-0.469600154,31.18146637,0.12
outside,83.69743477,83.50232644,0,0.011075157,83.52104294,83.6496818,1.002111945,-1.267223909,-0.021541623,83.7226058,1.81,118.8105408,67.41984304,0,416.5018453,106.5830216,67.66175014,1.114722955,0.610374974,-1.383134139,85.94904852,0.61
inside,73.96485174,73.8,0,0.001850316,73.8,73.8,1.002233763,2.521746901,4.826913047,73.81664,0.18,37.89673118,32.95298647,0,2.501706006,37.85243211,37.64179505,1.00117031,-1.041374335,-0.395960011,36.58348829,1.74
inside,73.8,73.8,0,0,73.8,73.8,1,0,-3,73.8,2.5,38.92235783,38.87118562,0,0.000293251,38.91761062,38.87118562,1.000121981,-0.017107198,-1.514088736,38.89265033,0.04
outside,84.76,84.40546012,0,0.018929075,84.76,84.43,1,1.104877618,-0.664702047,84.51452,0.47,114.8952794,111.2294095,0,251.3848232,114.75036,112.1054254,1.00126291,-2.119488317,2.832665027,106.2635279,0.18
inside,73.79304892,73.52482857,0,0.006656479,73.78656927,73.60612176,1.000087816,-0.669903297,-0.649117494,73.72866918,0.84,40.17625068,38.57524952,0,0.246884878,40.00145766,38.89266975,1.004369666,-0.611076725,-0.829324965,39.4532715,0.23
inside,76.53160654,76.38,0,0.001353271,76.46560421,76.38,1.000863164,2.18818526,3.718846194,76.39673283,0.05,35.69827065,31.67425964,0,1.416761788,35.3232429,35.02009145,1.010617025,-0.357531567,-1.044746021,33.93331479,0.01
inside,73.82453988,73.64972661,0,0.001598756,73.74175424,73.72772346,1.001122643,-1.840041679,2.440142921,73.77952,1.46,26.02810942,16.71762682,0,8.297373014,21.50416685,16.95448927,1.210375162,0.65948457,-0.905571592,19.9280843,0.14
inside,74.92788076,74.77,0,0.001853567,74.79453988,74.77,1.001782762,2.578183946,4.948469495,74.78664,0.02,32.80646408,31.39944679,0,0.138982811,32.70224852,32.12410316,1.003186801,-1.057887824,0.552327399,32.43182834,0.01
inside,75.06210755,74.85588648,0,0.012507913,75.04422292,74.9395311,1.000238321,0.411735977,-1.293219208,74.8916,0.64,40.05377686,37.45479314,0,0.707107076,39.80002222,38.42921556,1.006375741,-0.280659296,-1.190424965,39.12116087,0.01
inside,75.02856732,74.5275566,0,0.009448278,74.97735512,74.90212433,1.000683036,-0.094961213,1.179330147,74.79496,0.27,38.34551631,34.60089475,0,1.845446879,37.80116099,37.45832221,1.014400492,-0.189872366,-1.687261217,36.55935945,0.12
inside,74.44,74.44,0,0,74.44,74.44,1,0,-3,74.44,0,36.440364,36.17750499,0,0.007904109,36.37961746,36.28031529,1.001669796,-0.136902305,-0.897638651,36.33722995,0.01
outside,87.86742765,87.66196319,0,0.00183752,87.73754601,87.68048419,1.001480343,2.182621286,5.290378499,87.68944,0.08,112.6146639,99.3081368,0,10.1422122,112.2622701,101.9775973,1.003139023,-1.571200867,1.679894363,109.3910137,0.17
inside,74.99471223,74.48882521,0,0.027276202,74.80779141,74.79650307,1.002498681,1.455365737,0.724352376,74.54416936,0.43,40.81896032,39.53377963,0,0.12170572,40.17655087,40.04616991,1.015989662,0.057303577,-0.402807205,40.20295731,0.26
inside,77.01417663,76.92704016,0,0.000809025,77.01304892,76.93343734,1.000014643,-0.745967146,-0.709908553,76.99051868,0.24,31.21358746,29.29276987,0,0.353253056,29.96499579,29.30792594,1.041668341,1.079094757,-0.20743373,29.81004684,0.19
inside,77.07361254,76.70347554,0,0.010727916,76.99293309,76.7208426,1.001047881,-0.124143541,-1.301759002,76.88441283,0.06,33.88583805,32.62349876,0,0.186393482,33.85054324,32.7197121,1.001042666,-0.635161205,0.502330959,33.18036262,0.3
outside,78.96,78.63,0,0.022605987,78.96,78.63,1,-0.283441746,-1.790606692,78.81744,0.99,68.37442103,61.99291827,0,1.704147475,64.69628902,62.12364998,1.056852287,2.04069764,4.506399851,63.40534952,0.09
inside,74.46530675,74.32346233,0,0.00079567,74.44,74.32401624,1.000339962,-2.662466184,6.220872606,74.43108,0.08,24.32461374,20.11731414,0,3.127999137,24.27445379,23.4546289,1.002066368,-0.265920882,-1.58521541,22.37648468,1.41
inside,76.38,76.38,0,0,76.38,76.38,1,0,-3,76.38,0,32.63,32.25,0,0.016813593,32.63,32.25,1,-0.470269015,-1.196766546,32.44957676,0.28
outside,85.70017209,85.40469566,0,0.014931727,85.68860217,85.46765699,1.000135023,0.082555146,-1.592066083,85.5536,0.36,121.4433256,118.7104161,0,0.497592224,121.2115839,119.1139441,1.001911877,-0.181730107,-0.727378209,120.2859077,0.1
inside,75.56960491,75.27728916,0,0.023388704,75.37334263,75.34158364,1.002603869,0.065876875,-1.532527467,75.26003109,0.06,33.53838296,32.38152341,0,0.149759607,33.34191412,32.38600757,1.005892549,0.124315946,-1.434160214,32.86852147,0.09
inside,74.06562078,73.8,0,0.003882004,73.93055215,73.8,1.001826966,1.99819274,3.455418429,73.83712,0.04,35.58035309,28.34713923,0,5.176856862,33.63025229,31.61830889,1.057986505,-0.11468255,-1.104991597,32.2061691,0.52
inside,75.73,75.73,0,0,75.73,75.73,1,0,-3,75.73,2.5,37.55988118,32.10292114,0,2.247781767,34.87135317,32.15068567,1.077098471,0.931984311,0.206182112,33.75723034,0.05
inside,77.02,77.02,0,2.02E-28,77.02,77.02,1,1,-2,77.02,2.5,32.22830619,30.15935673,0,0.675966615,31.44583008,31.64402025,1.024883303,0.226428342,-0.813794818,31.53304393,0.52
inside,77.02,76.7,0,0.005703332,77.02,76.7,1,3.265037798,9.135294235,76.72304,0.06,37.16920703,35.85915362,0,0.144590359,36.95082665,36.00714025,1.005910027,0.404826121,-1.146858938,36.45300082,0.1
outside,86.69,86.37,0,0.010938517,86.60582137,86.37,1.000971974,1.415142045,0.306267512,86.42888,0.37,96.68688712,62.11310566,0,108.1371943,76.87179562,63.36135137,1.257768032,0.671098109,-0.811797079,77.00197542,0.28
inside,76.59893711,74.34551894,0,0.301013277,76.55168605,75.09974975,1.000617244,-0.038060894,-0.31498171,75.517,0.08,36.94309785,35.50476541,0,0.505527315,35.82567492,35.82245463,1.031190562,0.170928019,-1.531285487,36.46809546,1.06
inside,78.31501592,75.43307742,0,0.430580767,77.59352524,76.07373033,1.009298336,-0.402629771,0.048577673,76.98417955,0.08,14.60419976,14.07530071,0,40.78042329,14.22783469,14.11937922,1.02645273,0.977602592,-0.923231328,18.50780285,0.01
inside,74.47863426,73.80392638,0,0.035912001,74.43524185,74.01709851,1.000582955,-0.581178918,-0.734625634,74.24317354,1.03,34.62076254,30.34546784,0,2.723882547,34.6033244,32.8190268,1.000503944,-0.010939998,-1.654357319,32.43543282,0.64
inside,75.09,75.09,0,2.02E-28,75.09,75.09,1,-1,-2,75.09,2.5,35.38768729,33.96774948,0,0.155742393,35.38731959,34.34523,1.000010391,-0.681112048,-0.409105868,34.89565275,0.01
outside,83.61382359,83.14,0,0.007040545,83.47,83.14,1.001723057,-2.325204195,6.335816659,83.45516,0.01,122.3282231,118.5285138,0,1.508850459,121.617289,118.6368035,1.005845667,-0.28283913,-1.385841201,120.5976662,0.65
inside,75.09,74.80446883,0,0.011548169,75.08137796,74.84036959,1.000114836,-0.115803317,-1.404298743,74.95048785,0.12,26.21008122,17.72486206,0,7.665391069,23.02105212,21.66908568,1.138526644,-0.315861573,-1.155558866,22.57234428,0.41
inside,75.08765217,74.86705546,0,0.003845078,75.0584329,74.8678148,1.000389287,-1.411258801,0.93590398,75.03994206,0.2,30.86857495,30.34762873,0,0.297048714,30.79710863,30.37551886,1.002320553,0.092528042,1.827525005,30.55429072,0.4
inside,73.61271084,73.48,0,0.001123403,73.58017896,73.48,1.000442128,2.032540383,2.95128749,73.49664,0.1,24.39578368,14.33813959,0,10.29599508,21.21476237,16.98743254,1.149943763,0.122274582,-1.238601252,18.90150695,0.31
inside,76.34725138,76.05,0,0.007180735,76.31828568,76.05,1.000379538,1.919900373,2.155420842,76.09488,0.25,36.21745477,34.61803991,0,0.162726287,36.07361606,35.48285718,1.003987366,-0.95082368,0.100185167,35.59190523,0.11
outside,85.37424634,85.08582337,0,0.017272398,85.23168268,85.12114398,1.00167266,-0.596790587,-1.439583839,85.28864,1.59,71.28207982,59.14913327,0,14.16361084,71.02666858,59.48997614,1.003595991,0.690850618,-0.913836544,63.10787835,0.04
outside,81.21,80.89,0,0.020723068,81.21,80.89,1,-0.151908208,-1.844601142,81.06152,1.35,63.11411548,52.02405091,0,7.44134188,59.16792921,56.50008574,1.066694683,0.011506797,-0.657108186,56.63377529,0.11
outside,86.21642218,85.99130489,0,0.001245817,86.14030686,85.99130489,1.00088362,2.794024159,8.303660068,86.048,0.01,121.3489652,108.4940136,0,9.63278568,120.9661787,113.9173012,1.00316441,-1.432819602,1.389822409,118.1929882,1.42
outside,85.79059493,85.72,0,0.000193814,85.74453988,85.72,1.000537119,3.271080629,10.39740331,85.72512,0.07,83.45019668,54.18084877,0,65.77482721,81.95430581,56.3645552,1.018252743,0.70245373,-0.511576519,64.55879982,0.09
inside,74.77,74.77,0,2.02E-28,74.77,74.77,1,1,-2,74.77,2.5,37.28740706,35.22532833,0,0.491299327,36.9550792,35.59290063,1.008992752,-0.072093352,-1.589430662,36.30967447,0.17
inside,75.02856732,74.5275566,0,0.009448278,74.97735512,74.90212433,1.000683036,-0.094961213,1.179330147,74.79496,0.27,38.34551631,34.60089475,0,1.845446879,37.80116099,37.45832221,1.014400492,-0.189872366,-1.687261217,36.55935945,0.12
outside,84.76,84.76,0,0,84.76,84.76,1,0,-3,84.76,2.5,58.51123891,56.22228993,0,1.609995101,58.40170318,56.25783441,1.001875557,-0.415163647,0.022999056,56.45594071,1.39
outside,86.36197011,86.04,0,0.003894978,86.06530675,86.04,1.003446956,3.671608425,12.68020024,86.0598,0.01,118.9816583,114.7288262,0,1.322383216,118.9816583,114.7912799,1,0.267400894,-0.916039189,116.56896,0.19
inside,75.81461524,74.10384218,0,0.162164527,75.76223161,74.50206851,1.000691421,0.047105221,-0.204217627,74.96308908,0.06,36.90426034,36.00426987,0,0.172581209,36.49261164,36.00750246,1.01128033,0.786873378,-0.775304273,36.45652991,0.4
inside,75.35738487,75.16505891,0,0.008096301,75.35605172,75.21572715,1.000017691,0.868608491,-0.806032917,75.15892721,0.08,30.47806881,17.96600831,0,13.0713306,23.43038485,22.93125498,1.300792497,0.498517333,-0.49796559,23.22640534,0.35
inside,74.4191411,74.18852303,0,0.017562885,74.41095,74.34177429,1.000110079,-0.380241815,-1.655883672,74.31072,0,35.26076041,32.05541522,0,0.870907749,35.19584423,32.67854721,1.001844427,0.37379136,-1.042681419,33.65684415,0.06
inside,74.67514037,74.12196319,0,0.03789437,74.43041951,74.27053951,1.003287915,0.136301598,-1.03704531,74.49052,0.68,40.64365434,38.72703459,0,0.396727838,40.6354376,38.75456813,1.000202206,-0.231823278,-1.200724373,39.72561088,0.37
inside,76.38,76.38,0,0,76.38,76.38,1,0,-3,76.38,0,32.87496347,32.56,0,0.00728128,32.63,32.56,1.007507308,1.044922755,0.214940188,32.65542993,0.38
inside,74.56382204,74.37663413,0,0.001708997,74.56077121,74.41500928,1.000040917,1.237735042,1.272579095,74.4468,0.25,31.5879536,23.3871613,0,8.04878645,23.52842258,26.13910743,1.342544469,-0.444842643,-1.232843258,28.13763685,0.48
outside,87.01,87.01,0,0,87.01,87.01,1,0,-3,87.01,2.5,109.7176603,96.43176395,0,10.63467835,105.3747373,98.58728867,1.041214081,0.611543401,-0.144464755,101.3722098,0.15
inside,76.05,76.05,0,2.02E-28,76.05,76.05,1,1,-2,76.05,2.5,38.67748454,37.43331868,0,0.157432038,38.63182802,37.51712805,1.001181837,-0.385302127,-1.231422818,38.17477264,0.01
outside,87.33,87.01,0,0.022560893,87.33,87.01,1,0.437052665,-1.755834478,87.13672,0.98,76.13552301,58.603298,0,22.20132617,75.13453655,59.18996526,1.013322588,0.988316408,0.110997709,64.08224602,0.13
inside,76.24798066,76.05,0,0.003038509,76.19334886,76.05600535,1.000717015,0.491002683,0.059684956,76.13960891,0.05,35.91951623,35.72211993,0,0.003468535,35.91661963,35.80054722,1.000080648,-1.23631072,0.104855696,35.86575362,0.7
inside,77.67588415,77.34,0,0.015860212,77.64326698,77.34,1.00042009,1.223521455,-0.230618527,77.41772,0.01,32.43173264,30.96103072,0,0.170662605,32.08193557,31.20471822,1.010903241,-0.307341878,-0.745252941,31.80376189,0.29
inside,75.66605659,74.45104283,0,0.079422267,75.0796496,74.53420936,1.007810465,1.203429959,1.363720602,74.79497662,0.13,40.97061958,40.01283629,0,0.081995054,40.91001766,40.21725196,1.001481347,0.008622351,-0.566548501,40.59666217,0.13
inside,75.10457475,74.77526947,0,0.011061632,75.05056387,74.79572382,1.00071966,0.346948749,-1.238228408,74.91604397,0.12,38.13544157,34.2047239,0,2.514661037,37.7217667,37.19501179,1.010966477,-0.226990958,-1.419943614,35.92054833,0.87
inside,75.73,75.60819286,0,0.016623149,75.73,75.63602908,1,-0.973419981,-0.82001616,75.634,0.48,30.09515105,10.42678871,0,37.91962502,29.75124426,27.1367809,1.011559409,-1.749254281,1.35964828,26.03239358,0.18
outside,84.43,84.43,0,8.08E-28,84.43,84.43,1,-1,-2,84.43,0,122.4430561,86.10460493,0,123.4681702,121.3812564,86.66622181,1.008747642,-1.486355449,0.790485677,113.7216378,1.1
inside,76.05,76.05,0,2.02E-28,76.05,76.05,1,1,-2,76.05,2.5,69.2318894,47.85169722,0,20.9906039,56.74071364,52.82464378,1.220144847,1.362536828,2.146762356,53.94297684,0.14
inside,73.8,73.77388157,0,4.80E-05,73.8,73.77388157,1,-2.586673012,5.030528167,73.79744,1.4,42.19833753,40.02613557,0,0.676465101,40.19869026,40.05787694,1.04974409,0.512308438,-1.445106721,40.85881504,0.45
inside,75.09,74.74469325,0,0.016151276,75.09,74.8494893,1,0.177645796,-1.566610786,74.90990961,0.72,17.6095762,13.21702716,0,4.422917266,13.22380873,17.38802384,1.331656905,-0.391892153,-1.066648914,16.66343978,1.36
inside,75.09,74.77,0,0.023113258,75.09,74.77,1,-0.419946798,-1.781118662,74.96328,1.38,37.81965109,37.35403785,0,19.7703104,37.39436536,37.46917181,1.011372989,-0.734391718,-1.2555877,33.87444,0.07
inside,75.24160654,74.79611206,0,0.019380039,75.187098,74.84835525,1.000724972,0.172434627,-1.194685972,74.96985698,0.08,23.41267274,20.54472359,0,0.914294389,23.16153955,22.66337461,1.010842681,-0.498223125,-1.273241213,22.2230503,0.13
inside,73.76391644,73.54333603,0,0.003368376,73.71074104,73.55929382,1.000721406,0.586846179,-0.590883514,73.63076107,0.04,38.71981347,38.38283717,0,0.010918294,38.71583898,38.49781636,1.000102658,-0.404425971,-0.884733032,38.56818658,0.5
inside,77.02,76.97394495,0,4.51E-05,77.02,77.02,1,-5.373586912,28.6911753,77.01862789,2.35,28.32354269,27.72699599,0,0.045366922,28.23490798,27.75018099,1.003139189,0.767629207,-0.985290458,27.91882982,0.41
outside,84.43,84.43,0,8.08E-28,84.43,84.43,1,-1,-2,84.43,0,50.55377894,48.44638159,0,6.005466899,50.42523564,48.56935294,1.002549186,0.338538365,-1.2068426,51.66324035,0.97
inside,75.86840323,74.1517463,0,0.302095993,75.72008933,74.23014038,1.001958713,1.047979683,0.369740078,74.3824,0.05,38.92792736,36.60896057,0,0.382065459,38.83140684,37.90740607,1.00248563,-1.475399632,1.183837482,38.44102977,0.78
inside,74.12,73.8,0,0.014762265,74.12,73.8,1,0.950884911,-0.781164183,73.89088,0.27,23.60599523,17.37714086,0,5.58861309,17.60976348,17.49929179,1.340506093,0.901088271,-0.391534918,19.66433632,0.16
outside,86.04,85.84713284,0,0.007126582,86.04,85.94686456,1,-1.863185968,2.6012032,85.9888,2.05,54.61505764,52.00632747,0,0.42322638,54.10173662,52.70224522,1.009488069,-0.348152045,-0.34472937,53.44590984,0.26
inside,73.8,73.8,0,0,73.8,73.8,1,0,-3,73.8,2.5,31.37645325,27.48822928,0,4.310183199,31.04499759,29.55931152,1.010676621,0.322643673,-0.841940952,30.75596383,0.01
inside,74.86587788,74.77,0,0.000333107,74.86587788,74.77,1,3.834919475,13.81788514,74.77512,0.07,33.83695998,27.31058933,0,5.071673146,29.37284274,28.02505428,1.15198111,0.188826971,-1.439157118,30.50190153,0.76
inside,75.550139,75.41,0,0.00088231,75.550139,75.41,1,2.55465554,6.283456323,75.42408,0.08,32.00879763,29.67089898,0,0.4878429,30.68529318,30.19624859,1.043131556,0.282652376,-0.81616452,30.6449822,0.05
inside,76.69652446,76.40048419,0,0.016856216,76.45059493,76.40086883,1.003216843,0.905865582,-1.010153747,76.47605301,0.52,36.0607378,35.30352989,0,0.74859396,35.95850738,35.44175171,1.002843011,-1.393012278,0.826279068,35.21013116,0.57
inside,75.73,75.73,0,0,75.73,75.73,1,0,-3,75.73,2.5,37.71786442,32.63130934,0,3.913446757,35.19100614,34.20225578,1.071804093,-0.46131377,-0.500780622,33.90204854,0.2
inside,74.77,74.44802989,0,0.013168545,74.71672904,74.52878601,1.000712972,-0.434032658,-1.2578682,74.65252,0.93,25.81184193,22.42328753,0,1.04478071,23.74082055,24.64385139,1.087234617,0.819285432,-0.465441219,23.64137383,0.23
inside,75.69045084,75.41,0,0.005191893,75.54721103,75.41,1.00189603,2.071055502,3.280514673,75.4484,0.1,37.28434256,34.57444495,0,0.793545529,37.1477689,36.8056496,1.003676497,-0.621914121,-1.076237356,36.23936889,0.11
inside,74.75490155,74.4870808,0,0.01346038,74.64479615,74.5264228,1.001475058,-0.486464804,-1.248870986,74.65104887,0.18,33.6006663,32.61414804,0,0.090088427,33.35574832,32.70324942,1.007342602,0.913060417,0.13624977,33.02811586,0.01
inside,74.53043723,74.44,0,0.013258447,74.46530675,74.44,1.000874642,1.524049473,0.529987387,74.5052018,0.18,39.11154451,38.7470619,0,0.010161181,39.02708748,38.87465602,1.002164062,-0.233502913,-0.641972851,38.94934383,0.58
outside,85.08,85.08,0,0,85.08,85.08,1,0,-3,85.08,2.5,61.77470866,57.74202212,0,0.828843809,60.86782147,58.18779968,1.014899288,0.891209709,0.264826615,59.16113894,0.1
inside,74.77,74.68461703,0,0.000306578,74.77,74.74469325,1,-3.173019137,9.546321775,74.7634,0.64,33.96983182,27.3480713,0,4.097934841,31.32546948,28.00506807,1.084415729,0.136803114,-1.229984779,30.56001087,0.05
outside,86.96133113,86.69196319,0,0.009830825,86.94027676,86.69582337,1.000242171,0.938296653,-0.620684583,86.79209515,0.09,106.3138001,96.93058863,0,10.64385128,105.9216094,97.14939905,1.00370265,-0.268808313,-0.699644031,101.0505455,0.04
inside,74.12,74.12,0,2.02E-28,74.12,74.12,1,-1,-2,74.12,0,27.82574515,17.46414376,0,10.833146,23.55376648,17.49357277,1.181371361,0.237149912,-1.106551653,22.08604219,0.19
inside,73.82453988,73.64972661,0,0.001598756,73.74175424,73.72772346,1.001122643,-1.840041679,2.440142921,73.77952,1.46,26.02810942,16.71762682,0,8.297373014,21.50416685,16.95448927,1.210375162,0.65948457,-0.905571592,19.9280843,0.14
inside,74.67051355,74.47537143,0,0.005101948,74.63211237,74.48079532,1.00051454,1.334258794,1.523400782,74.50732,0.01,38.80110507,38.56513682,0,0.00774585,38.79544186,38.62507217,1.000145976,-0.371515928,-0.744337272,38.66981147,0.28
inside,74.12,74.12,0,2.02E-28,74.12,74.12,1,-1,-2,74.12,0,37.66429635,30.96347941,0,5.027635116,36.62858117,31.56783121,1.028276148,0.103686293,-1.589482269,34.06607303,0.86
outside,85.38206274,85.30114425,0,0.021106281,85.30572691,85.37546012,1.00089485,0.227026001,-1.825511882,85.21824,1.14,108.0756425,60.91357882,0,159.3387772,62.92464339,61.1175593,1.717540802,2.075498713,3.077649791,67.82290778,0.17
inside,75.33453654,75.11611206,0,0.006674715,75.29987221,75.2700565,1.00046035,0.968136586,-0.607017546,75.154,0.08,31.92158951,27.2828968,0,1.887056254,31.47572695,30.55888841,1.014165282,-1.197560055,0.747617807,30.99236833,0.22
inside,74.44,74.44,0,0,74.44,74.44,1,0,-3,74.44,0,40.84981595,40.58447804,0,0.007793059,40.84981595,40.72592438,1,-0.760389096,0.216972787,40.72028967,0.25
inside,76.38,76.17920148,0,0.003217825,76.38,76.25739933,1,-1.702899429,1.892602832,76.34460109,1.86,34.20983753,32.63719236,0,0.185791914,34.05042227,33.52720376,1.004681741,-1.091892308,0.073918977,33.6944706,0.76
outside,85.4,85.08,0,0.02180228,85.4,85.08,1,0.367913572,-1.765688152,85.21312,0,103.8858326,94.78268881,0,6.261967455,102.7771026,96.03186931,1.010787714,-0.475132282,-0.907277538,99.98654169,0.13
inside,75.75453988,75.63704376,0,0.000418906,75.73,75.68130489,1.000324044,-2.494123018,6.439674169,75.7236,0.07,39.29390093,37.79659763,0,0.17977363,39.21599389,37.81640956,1.001986614,-0.628934826,-0.676954775,38.6752774,0.07
outside,81.21,81.21,0,2.02E-28,81.21,81.21,1,-1,-2,81.21,2.5,116.5831239,56.68240339,0,466.5462995,103.7342814,58.19897721,1.123863031,0.774370698,-0.949302455,75.92857977,0.24
inside,74.81869511,74.77,0,8.50E-05,74.81869511,74.77,1,3.869434359,14.08881413,74.77256,0.07,30.6918693,21.04976877,0,11.67045953,22.58639245,21.84790027,1.358865493,0.296593359,-1.502710445,25.27465278,0.01
inside,76.04652446,75.73431102,0,0.014813948,75.80481354,75.76533055,1.003188596,-0.581754248,-1.4905336,75.94642601,1.04,37.07006846,28.97791181,0,4.96266692,35.67893859,34.28255758,1.038990226,-0.543872567,-0.997538643,33.44676014,1.56
outside,85.9316399,85.62273274,0,0.010775866,85.63304909,85.92225849,1.003486864,1.258264471,1.316483743,85.75100679,0.04,117.6057139,113.0915559,0,2.006391526,117.5757438,113.5020367,1.0002549,-0.025724271,-1.12445477,115.4330918,0.02
inside,76.66797213,76.55073135,0,0.017425142,76.5864529,76.56401906,1.001064408,-0.565728467,-1.349681107,76.5762343,1.02,34.05545997,32.01816696,0,0.266721126,33.38472138,32.87907716,1.020091184,-0.28517096,-0.495010345,33.16188905,0.39
inside,87.01,85.08,0,0.449625518,87.01,85.08,1,0.134320618,-1.704704689,85.9906,1.11,35.60128499,33.74600664,0,3.99186301,35.39218526,35.1637234,1.005908076,-0.464197514,0.556916043,34.29086087,1.27
outside,85.3715238,85.08,0,0.01988698,85.34012597,85.3068745,1.000367914,0.356748787,-1.764544796,85.21056,0,114.9004328,64.45566658,0,375.9546275,113.2107891,111.692742,1.014924758,-0.879762108,-1.111645485,99.78351263,0.13
inside,75.71442687,75.41,0,0.004799718,75.49852225,75.41,1.00285972,2.534543831,5.832862453,75.44847558,0.1,36.84695853,33.81935188,0,1.319341955,34.47692943,35.02979591,1.068742464,-0.178694635,-1.301437504,35.21755915,0.44
inside,74.96471662,74.12,0,0.029754085,74.59577304,74.12,1.004945905,0.410202407,1.721709318,74.44764,0.1,24.97838971,23.30215755,0,0.242717729,24.92250807,24.05608984,1.002242216,-0.475434689,-0.783767787,24.37105434,0.42
inside,74.12,74.06520988,0,0.000213952,74.12,74.0775328,1,-1.412645237,0.936779917,74.10976,0.51,35.0575653,28.12040887,0,9.181993219,33.30876586,28.36534418,1.052502679,-0.012383415,-1.006117787,32.93792961,0.59
inside,74.12,74.09546012,0,2.14E-05,74.12,74.12,1,-3.876915332,14.1500431,74.11872,0,31.38745047,26.45136018,0,1.877684779,30.88856846,29.70884679,1.016151024,-0.852721393,-0.499182528,29.32621822,0.1
inside,76.35568165,76.19373896,0,0.002520547,76.31447939,76.24355913,1.000539901,-1.202934758,0.46098643,76.34029962,0,38.14864764,36.43211073,0,0.394293407,37.92058848,36.88133315,1.006014125,-0.810378781,0.735283415,37.092709,1.54
inside,75.08137796,74.77,0,0.008249784,75.04031644,74.77,1.000547193,1.683015122,1.366538974,74.82120939,0.07,33.28994144,29.82583863,0,0.951857351,33.25385997,30.45887041,1.001085031,0.252574152,-0.899061115,31.57280265,0.04
inside,73.82453988,73.8,0,2.14E-05,73.8,73.8,1.000332519,3.876915332,14.1500431,73.80128,0.07,41.04557158,39.89412037,0,0.16211726,40.97116613,40.60013577,1.001816044,-1.465939416,1.73774076,40.61989567,0.62
inside,75.07384673,74.8097546,0,0.011157408,75.07346843,74.81461953,1.000005039,1.324567471,0.10478466,74.84043043,0.21,35.47066708,32.67360787,0,0.589263621,34.9406476,32.99816616,1.015169137,-0.024477264,-0.947214759,34.04226734,0.21
outside,85.84256014,85.73287683,0,0.006335672,85.83755235,85.74725608,1.00005834,1.762383323,2.891415831,85.78528,0.06,122.0923875,118.9380235,0,0.62115408,121.4060726,119.3474692,1.005653053,0.304160638,-0.791211237,120.374372,0.23
inside,77.01652446,76.95392153,0,0.000285143,77.01652446,76.99546012,1,-1.227674135,0.560591578,77.00711507,0.14,29.99403447,27.70662379,0,0.409366584,28.83524759,27.74714852,1.040186472,1.505936399,1.314344985,28.28893662,0.15
outside,85.27730044,85.15207471,0,0.015658681,85.20021231,85.24709288,1.000904788,0.448157247,-1.393366238,85.20672,1.03,61.67496742,58.53987656,0,144.7895179,59.75914356,58.54377406,1.032059092,2.179145758,3.225373421,64.9218908,0.3
inside,75.70933661,75.53430793,0,0.013892792,75.69513656,75.58235601,1.000187595,0.393608024,-1.567672954,75.51624,0.29,30.01399083,18.05367087,0,14.83910828,27.28180116,27.13990245,1.100146968,-0.538762277,-1.120648273,24.96846798,1.54
outside,84.96975918,84.92304785,0,0.007776626,84.96478194,84.94955092,1.00005858,0.647498019,-1.26798438,84.83424,0.21,119.575598,84.80495315,0,135.2260818,119.122393,85.13900551,1.003804533,-0.70192762,-1.070769034,108.2538267,0.41
inside,74.79453988,74.77,0,2.14E-05,74.77,74.77,1.000328205,3.876915332,14.1500431,74.77128,0.07,35.5989037,31.07551249,0,1.654203238,34.69789788,33.18818615,1.025967159,-0.240590767,-0.824280451,33.50632496,0.37
inside,74.51160412,74.2969656,0,0.001470845,74.46530675,74.41546012,1.000621731,-2.013732656,4.627812587,74.43118276,0.06,31.62555685,23.30847907,0,8.898170271,24.78972819,24.21702102,1.275752465,0.461629564,-1.392670274,26.84633385,0.05
inside,73.48,73.48,0,0,73.48,73.48,1,0,-3,73.48,2.5,31.64923454,30.79500022,0,0.091017494,30.98667612,30.93100314,1.021382042,0.312867235,-1.498193269,31.20345753,0.29
inside,75.08456127,74.77431102,0,0.010357137,75.07656927,74.80447877,1.000106451,-0.29734778,-1.299530239,74.94526338,0.01,28.85643434,25.98317249,0,0.711820204,27.44949482,26.9097646,1.051255571,0.298045383,-0.734288075,27.42675565,0.72
inside,75.35484787,74.86647171,0,0.014910684,75.11453988,75.06546012,1.003199221,-0.534034901,0.65840427,75.07240183,0.08,33.11441102,29.89128393,0,2.847071352,32.34582058,29.90418979,1.023761661,-0.213964255,-0.667487607,30.19122202,0.07
outside,83.47,83.47,0,0,83.47,83.47,1,0,-3,83.47,2.5,116.811864,68.70776014,0,311.3744177,104.6099302,69.02870513,1.116642214,-0.238672657,-1.40653179,95.93615518,0.01
inside,75.08003487,74.79761087,0,0.011643889,75.07807168,74.81931519,1.000026149,0.32334323,-1.372139026,74.90309825,0.14,28.83306411,22.00725979,0,4.674529177,27.71010828,27.23986971,1.040525133,-1.032974427,-0.317848949,26.49263263,1.16
inside,79.36359253,73.649332,0,2.677242584,79.17856991,74.24705037,1.002336776,1.226953932,0.444204464,75.33918276,0.16,37.66238216,35.31483924,0,0.307206558,37.45404947,37.06041342,1.005562354,-1.908100868,3.061875736,37.16642125,0.1
inside,75.2089054,74.94779114,0,0.00224354,75.13831047,75.02666397,1.000939533,-0.483389346,1.641481004,75.07976,0.07,32.9942598,31.16722053,0,0.306941836,32.77936994,31.85194295,1.006555643,0.147960791,-1.123649121,32.02697365,0.06
outside,84.11,84.08546012,0,3.94E-05,84.11,84.08546012,1,-2.478604605,4.785758377,84.10744,0.91,88.80017425,47.22677701,0,122.9283788,64.10348264,48.52144802,1.385262868,1.235546947,0.605383918,57.35901277,0.08
outside,86.09021684,86.04,0,0.000144843,86.09021684,86.04,1,2.315428264,4.151818917,86.04528,0.07,71.58352734,51.61946594,0,16.02665016,53.42095918,51.96374388,1.339989555,2.972848525,8.408752717,54.20564111,0.09
inside,75.73,75.41,0,0.015566275,75.52711147,75.41,1.002686301,0.636394913,-1.302010309,75.52620633,0.15,30.39895874,26.18997807,0,1.871035021,30.33982933,29.32433555,1.001948904,-0.808206032,-0.61553334,28.90568063,0.28
inside,73.78598552,73.48,0,0.021320301,73.56789581,73.48,1.002964468,-0.078796506,-1.877147321,73.64768,1.28,27.88525092,16.39832095,0,16.43115395,26.87985526,26.6006533,1.037403314,0.143174388,-1.673908158,22.22585971,0.72
inside,75.17618436,74.77,0,0.023548029,75.10596413,74.77,1.000934949,0.256631444,-1.726287945,74.92104,0.4,33.47353923,31.86813034,0,0.263271405,33.33533376,32.67012439,1.004145915,-0.370884473,-1.159480305,32.77212891,0.3
inside,75.73,75.73,0,0,75.73,75.73,1,0,-3,75.73,2.5,39.80279294,37.3213098,0,0.511179451,39.51997508,37.4978984,1.007156327,0.011355531,-1.060882214,38.57684859,0.1
inside,73.71408368,73.50650307,0,0.009514516,73.71146421,73.51608356,1.000035537,-0.604031819,-0.938314531,73.69106122,0.31,37.31366474,33.14545,0,2.883660187,36.76529545,36.31571536,1.014915405,-0.415437358,-1.288749628,35.12856058,0.11
inside,74.09698877,73.8395591,0,0.008828362,74.08938141,73.93832877,1.000102678,0.752725265,-0.743897714,73.88576,0.1,41.52720043,35.34599511,0,4.021738573,39.58564576,39.57402095,1.049046937,-0.694748905,-0.777140254,39.2989483,0.22
outside,87.68453988,87.42125495,0,0.021091479,87.66,87.56918289,1.000279944,-0.306380204,-1.721702062,87.51872,0.8,73.49279444,54.40475748,0,15.7739117,63.37254072,54.56592077,1.159694619,2.063900252,4.212028479,57.89741127,0.06
inside,74.5626212,74.36714965,0,0.001095986,74.53586112,74.44,1.000359023,1.360631563,3.28903349,74.44804,0.07,30.84281734,27.35470966,0,1.021109343,28.78444473,27.62486613,1.071509895,1.032189922,0.070490005,28.55618071,0.35
outside,81.21,81.21,0,2.02E-28,81.21,81.21,1,-1,-2,81.21,2.5,58.13443552,53.05459749,0,2.982482867,55.07493043,53.49289136,1.055551683,0.453360031,-1.425901106,55.18442346,0.13
outside,85.07803681,84.43,0,0.039201151,85.07803681,84.43,1,0.034325393,-0.62947799,84.7254,0.06,103.5515502,91.06424646,0,14.87882579,102.6487172,91.20017248,1.008795366,-0.668573823,-0.945566027,98.36349134,0.13
inside,73.79041951,73.5513217,0,0.005895669,73.69785788,73.64814172,1.001255961,-1.016933404,-0.38124633,73.74352699,1.32,69.98910468,28.45656119,0,91.74617798,41.19830342,40.85496232,1.698834633,2.035861254,3.744875863,36.79679182,0.12
outside,78.63,77.96546012,0,0.058297089,78.63,77.99,1,0.227015216,-1.289721091,78.26004957,0,109.3527685,95.69491928,0,259.4580776,108.361478,106.4735449,1.009147997,-1.010825931,-0.630717761,96.05510734,1.48
inside,76.73233684,75.89876816,0,0.112786593,76.6866454,75.9285775,1.00059582,0.61379422,-1.06370112,76.09208319,0.56,31.8514004,31.42725341,0,0.127201186,31.62280761,31.47928216,1.007228732,0.907244398,-0.333974288,31.85489394,0.05
inside,75.75453988,75.42756256,0,0.021717785,75.52712141,75.45482857,1.003011083,0.486773119,-1.654209132,75.538,0.07,41.42382881,28.05946457,0,22.54042812,41.13813702,41.04091537,1.006944695,-0.660526334,-1.148807479,36.83659063,0.1
inside,77.94871092,74.43005656,0,0.640782397,77.4098036,75.03934197,1.006961745,-0.321259709,-0.294676898,76.19616,0.1,24.0616409,22.57585606,0,0.135488125,23.91968229,23.06438959,1.005934803,-0.109040309,-0.606783591,23.3680191,0.37
inside,75.73,75.73,0,0,75.73,75.73,1,0,-3,75.73,2.5,41.25464497,38.93103735,0,0.472832649,40.45163358,39.08610661,1.019851149,0.226030186,-1.112621649,39.98219464,0.18
inside,74.12,74.12,0,2.02E-28,74.12,74.12,1,-1,-2,74.12,0,29.73738189,26.05579004,0,0.948130282,28.77319369,27.1467896,1.033509947,-0.152551606,-0.72190796,28.14825849,0.04
outside,84.42372579,84.11,0,0.003168795,84.11,84.11,1.003729946,4.253184913,17.1859102,84.12408,0.01,99.66306051,55.51225384,0,355.4884214,99.10362963,57.77051311,1.005644908,0.113051392,-1.592957484,78.65768326,0.01
inside,76.05,75.73,0,0.005302018,76.05,75.89764045,1,-2.502312764,5.716080675,76.01544,0.05,40.53611408,34.74705292,0,4.628126784,40.0374934,37.57291299,1.012453844,-0.670159343,-0.759890932,37.99502879,0.09
inside,73.79417663,73.54003969,0,0.005711768,73.74409213,73.6199272,1.000679166,-0.946556895,-0.065559332,73.72576,0.35,22.09864663,16.87431076,0,17.70498067,16.89660045,21.59346309,1.307875315,1.107836211,0.255740226,20.84291855,0.01
inside,75.34149864,73.83024389,0,0.139185762,74.10749787,73.8313716,1.016651497,1.804781845,2.266113183,74.15831603,0.07,37.54330142,35.00200225,0,0.419912104,36.65991854,35.48382246,1.024096695,0.675586222,-0.135535057,36.04962882,0.04
outside,84.76,84.76,0,0,84.76,84.76,1,0,-3,84.76,2.5,42.76045199,39.28374575,0,13.83952705,42.46868776,39.31199311,1.006870102,4.494764486,22.163713,41.67611109,0.01
inside,74.44943161,74.12,0,0.017007046,74.25308554,74.12,1.002644282,1.098596801,-0.277441038,74.21762673,0.13,39.70355147,37.11745211,0,0.721994965,39.00351389,37.6387387,1.017948065,-0.25146801,-0.734236953,38.80334074,0.36
outside,88.34426112,88.3,0,9.78E-05,88.34426112,88.3,1,2.643794118,6.012831132,88.30384,0.08,117.4344099,68.30388243,0,367.885706,116.1906112,77.38731411,1.010704812,-0.080820623,-1.767872054,95.85006219,1.16
outside,84.43,84.43,0,8.08E-28,84.43,84.43,1,-1,-2,84.43,0,62.53829138,58.673908,0,1.007457446,61.46685445,59.44688165,1.017431133,0.153621829,-0.666085137,60.65064975,0.13
inside,74.79453988,74.77,0,2.14E-05,74.77,74.77,1.000328205,3.876915332,14.1500431,74.77128,0.07,35.325499,30.20867061,0,2.030590264,35.2475656,32.3015316,1.002211029,-0.958028008,0.190374691,33.61966602,0.28
inside,76.49456814,76.38196319,0,0.001256796,76.48988242,76.41177254,1.000061259,0.00666605,-1.02006526,76.43248,0.01,32.67837752,32.56571201,0,0.000401496,32.63,32.57355956,1.001482609,-0.878897334,2.641302007,32.62642712,0.08
outside,79.6,79.28347554,0,0.007344101,79.6,79.57057529,1,-2.53674321,4.783685362,79.56553211,0.08,110.3780483,72.55744865,0,100.9628664,106.4485961,78.90910027,1.036914082,-0.00619214,-1.09472711,92.24395451,0.25
inside,76.05,76.05,0,2.02E-28,76.05,76.05,1,1,-2,76.05,2.5,36.8891012,28.20041055,0,8.678412369,36.01090989,28.37808451,1.024386813,-0.090398037,-1.390905979,32.31550519,0.05
inside,75.73,75.6898707,0,3.58E-05,75.73,75.73,1,-5.126174448,26.04021543,75.72872,2.38,29.85065345,26.50125589,0,12.72508053,28.95071032,26.63621358,1.031085356,-0.90421099,-0.353473856,25.85620461,0.98
outside,87.01,86.83539217,0,0.002217662,87.01,86.87435758,1,-1.967230812,2.408113902,86.98824,2.06,98.12393928,64.32486007,0,77.88644848,91.68488995,73.05297621,1.070230213,-0.604589794,-0.425408539,82.56116306,0.05
inside,74.77,74.77,0,2.02E-28,74.77,74.77,1,1,-2,74.77,2.5,38.87879453,34.31828759,0,1.783068808,37.06885949,34.72244643,1.048826294,0.144360405,-1.130720095,36.49323134,0.5
inside,77.09950295,74.1416119,0,0.867291552,76.26571699,74.29354177,1.010932644,0.742363998,-0.911422808,74.91853261,0.07,38.51181946,35.95558917,0,0.613885013,38.4864584,36.5272961,1.000658961,-0.17080792,-1.352857023,37.44207555,0.16
inside,77.67,77.34,0,0.019175437,77.67,77.34,1,0.635297224,-1.422900526,77.45218222,0.04,34.22179778,30.5543116,0,1.226369452,32.3084933,32.27831609,1.059219861,-0.310101822,-1.194605086,32.6154582,0.13
inside,76.59893711,74.34551894,0,0.301013277,76.55168605,75.09974975,1.000617244,-0.038060894,-0.31498171,75.517,0.08,36.94309785,35.50476541,0,0.505527315,35.82567492,35.82245463,1.031190562,0.170928019,-1.531285487,36.46809546,1.06
outside,85.37951581,85.08695108,0,0.019589763,85.14278213,85.12698726,1.002780432,-0.101612863,-1.903519383,85.25536,1.31,78.79727745,59.2432647,0,26.43105682,74.55289402,59.62603461,1.056931169,0.684939316,-0.380465161,65.81866955,0.07
inside,75.41,75.41,0,2.02E-28,75.41,75.41,1,1,-2,75.41,0,66.23179719,51.99582464,0,10.49848195,55.98783126,53.94289078,1.182967722,1.713767871,3.490654022,54.59585893,0.12
