class,z_accel max,z_accel min,z_accel peak-freq,z_accel variance,z_accel second-max,z_accel second-min,z_accel ratio,z_accel skewness,z_accel kurtosis,z_accel mean,z_accel settling-time
soft,1097.75409822,153.383104819,1.66666666667,27203.7627234,1050.2530318,766.935020336,1.04522821166,-3.5868702265280907,12.463247570912868,961.246583975,0.02
soft,1108.08528148,153.626578572,1.66666666667,27792.4365759,1056.16626039,868.039319669,1.04915800006,-3.720259609874164,13.064364620486646,960.391326666,0.025
soft,1083.1978247,172.338815317,1.66666666667,25758.2648499,1055.380712,852.287001427,1.02635742002,-3.7474487603362254,13.391219695676917,963.812958129,0.02
soft,1077.0566771,122.877782479,1.66666666667,28778.4484559,1015.9710661,897.312177369,1.06012534514,-3.756924291480794,13.315902581757776,959.107745897,0.045
soft,1154.05426964,101.941904065,1.66666666667,30587.008241,1022.2762307,887.322895937,1.12890648827,-3.694595487796005,13.022131071985307,949.638102892,0.03
soft,1045.73598488,101.672435474,1.66666666667,33011.58076,1020.34462424,823.393571006,1.02488508298,-3.5112912860076797,11.586472037921808,952.45665029,0.04
soft,1137.33088469,158.716187666,1.66666666667,23550.8245698,1016.5677811,928.511556378,1.11879493511,-3.9483383969291803,15.04469334325007,950.720912057,0.03
soft,1311.79059171,194.183170498,1.66666666667,21829.7538088,1049.42685872,929.688307365,1.25000668776,-3.641464187563147,14.93792374014441,970.892960208,0.035
soft,1265.06387053,205.738820287,1.66666666667,21767.9303384,1058.39416544,847.902565974,1.1952672377,-3.5508746421947412,13.58295229217753,963.274277365,0.035
soft,1176.46234309,173.396133709,1.66666666667,24068.9419458,1052.67322902,845.381793741,1.11759500542,-3.761147136129897,14.025654605774712,968.356186521,0.025
soft,1191.46180837,-100.876661483,1.66666666667,51793.5755239,1038.04478817,839.089041194,1.14779422039,-3.6654331635822848,12.511438343134712,940.444721376,0.03
soft,1176.73278964,110.76252542,1.66666666667,30596.3083752,1034.56969127,885.767977657,1.13741278095,-3.7451950142745325,13.374075789569027,964.314228575,0.03
soft,1216.47821396,107.142724815,1.66666666667,29425.1285812,1024.90073621,947.269385894,1.18692295847,-3.6794255893758505,13.277617412988413,943.221573385,0.04
soft,1114.35777908,135.578610242,1.66666666667,26207.3105267,1053.27004231,946.821436436,1.0579981717,-3.866562004353964,14.31778808317543,955.970612002,0.045
soft,1279.20945809,130.229814146,1.66666666667,27985.2721937,1053.58105092,792.431834819,1.21415382042,-3.5820035184933228,13.355556902448594,971.029677153,0.035
soft,1383.8505125,167.306734701,3.33333333333,23381.3410789,1028.56233943,725.340331803,1.34542210953,-2.5687921992912144,11.228766247493173,917.844201526,0.045
soft,1321.6468287,170.843698351,2.66666666667,21704.1148364,1027.6930956,767.418877889,1.28603260483,-2.384454823607945,10.612075243774447,881.987106361,0.055
soft,1369.57004468,218.935561737,1.66666666667,18753.2312858,1018.47199009,856.758440437,1.34473020172,-2.095455062854075,11.283938745505454,897.080215627,0.05
soft,1120.45585138,150.092576466,1.66666666667,20636.2787535,1015.58217282,870.155861178,1.10326459185,-3.7153863061518133,14.788706570532312,901.276414119,0.06
soft,1115.85466578,128.831107834,1.66666666667,27473.8616738,1072.13752683,926.026213709,1.04077568209,-3.8872166060763567,14.362775826301114,968.077797261,0.025
hard,1231.10591543,-426.205497202,1.66666666667,101827.656403,1115.37183653,221.644911398,1.10376277678,-2.650250715441176,6.710462842383025,891.158812111,0.07
hard,1365.73745156,-133.471882386,1.66666666667,56486.6361581,1054.96313909,152.846929322,1.29458310054,-2.62637548687604,7.146564457398561,923.727797261,0.045
hard,1066.91481914,87.8833992358,1.66666666667,40318.981649,1016.33767701,369.878287369,1.04976411214,-1.9965820209179366,3.6723963220255724,847.645868193,0.035
hard,1239.92135293,50.7073308888,1.66666666667,47245.7683631,1104.61976756,365.665609323,1.12248702164,-2.4043094773948153,5.708388640718724,900.320315001,0.03
hard,1022.56333845,-166.461453711,2.0,52650.8286971,1016.69001535,546.676375703,1.00577690645,-2.371246994743455,6.00451114103055,826.775107622,0.645
hard,1305.48200293,-272.03755593,1.66666666667,72711.5351546,1011.44552384,869.535871602,1.29070916046,-2.574445006219431,6.360043437113752,831.250453992,0.045
hard,1468.45407361,22.1976828644,2.66666666667,61608.178509,1076.21785307,179.057532223,1.36445801324,-1.1459595967185714,1.7829444212189616,876.449435416,0.06
hard,1104.75171301,-719.368550211,1.66666666667,157880.017918,1073.26137583,165.879845723,1.02934079049,-2.340329323804629,4.806544648206507,824.25544888,0.045
hard,1023.98856993,-216.928150602,1.66666666667,64778.8965566,1021.13347504,201.258595943,1.00279600558,-2.5253167371028438,5.874640127196967,877.184298509,0.035
hard,1083.00526476,-1056.33475395,1.66666666667,172022.130294,1066.76185103,948.102151509,1.01522684159,-3.1832182922234247,9.474697816959244,860.814985702,0.035
hard,1297.75689018,-373.121111823,1.66666666667,75742.3204511,1122.91094136,763.838411614,1.1557077613,-2.6735622235835046,7.533831169230874,884.082955973,0.05
hard,1117.48488101,-926.036492167,1.66666666667,151541.835933,1062.90123483,643.77462623,1.05135345072,-2.868038903190613,7.95366211678985,846.37682809,0.025
hard,1338.75748219,-231.109456829,2.0,73660.1727797,1086.34461189,658.830676976,1.23235064411,-2.399757099709383,5.83205783934709,895.607579315,0.055
hard,1081.87275465,-269.782498033,1.66666666667,80505.6032012,1052.58827211,96.7967290521,1.02782140303,-2.4875936748874605,5.088131020577492,895.040383162,0.055
hard,1347.55889903,-278.426740172,1.66666666667,77436.9885211,1018.72804969,852.210280843,1.32278570266,-2.720229022205877,6.930209320799088,912.444250327,0.045
hard,1350.91914683,195.26843003,2.0,28225.1700254,1118.471831,694.974051055,1.20782581141,-1.7325204089674244,6.444104176718405,917.638740643,0.07
hard,1109.96796794,-51.7838944695,1.66666666667,59607.2861784,1103.76334381,260.442897436,1.00562133555,-2.530692037171325,5.412906964702497,923.521200195,0.065
hard,1175.34092184,115.451138,1.66666666667,57841.9955753,1118.45032514,206.392382131,1.05086555515,-1.9462832990701429,2.6972025667266637,878.812445799,0.04
hard,1208.07067812,63.7261354503,1.66666666667,48188.6138935,1160.6017027,156.351045391,1.04090031517,-2.047194146247288,4.004673331414715,909.065814619,0.04
hard,1186.23494388,110.385509722,1.66666666667,35210.3287075,1105.18368976,630.769154381,1.07333735999,-2.429706056777276,6.515355974431026,913.832965214,0.05
